{
  "main": {
    "id": "baa914b97c1ee6bc",
    "type": "split",
    "children": [
      {
        "id": "335411f1e70ba41e",
        "type": "tabs",
        "children": [
          {
            "id": "251cbe517c064641",
            "type": "leaf",
            "state": {
              "type": "markdown",
              "state": {
                "file": "hello world.md",
                "mode": "source",
                "source": false
              }
            }
          }
        ]
      }
    ],
    "direction": "vertical"
  },
  "left": {
    "id": "a10af2320d8e3853",
    "type": "split",
    "children": [
      {
        "id": "f10a44ee69f8c641",
        "type": "tabs",
        "children": [
          {
            "id": "6aec1652dcf487df",
            "type": "leaf",
            "state": {
              "type": "file-explorer",
              "state": {
                "sortOrder": "alphabetical"
              }
            }
          },
          {
            "id": "932d093a7ece20a7",
            "type": "leaf",
            "state": {
              "type": "search",
              "state": {
                "query": "",
                "matchingCase": false,
                "explainSearch": false,
                "collapseAll": false,
                "extraContext": false,
                "sortOrder": "alphabetical"
              }
            }
          },
          {
            "id": "4bc69e4753dbde68",
            "type": "leaf",
            "state": {
              "type": "bookmarks",
              "state": {}
            }
          }
        ]
      }
    ],
    "direction": "horizontal",
    "width": 300
  },
  "right": {
    "id": "0f75afb226477729",
    "type": "split",
    "children": [
      {
        "id": "fb41d4d10a0fa5e3",
        "type": "tabs",
        "children": [
          {
            "id": "9a139bd9ede0cd73",
            "type": "leaf",
            "state": {
              "type": "backlink",
              "state": {
                "file": "hello world.md",
                "collapseAll": false,
                "extraContext": false,
                "sortOrder": "alphabetical",
                "showSearch": false,
                "searchQuery": "",
                "backlinkCollapsed": false,
                "unlinkedCollapsed": true
              }
            }
          },
          {
            "id": "fc8420dcc5036d18",
            "type": "leaf",
            "state": {
              "type": "outgoing-link",
              "state": {
                "file": "hello world.md",
                "linksCollapsed": false,
                "unlinkedCollapsed": true
              }
            }
          },
          {
            "id": "71a4191e749eff1f",
            "type": "leaf",
            "state": {
              "type": "tag",
              "state": {
                "sortOrder": "frequency",
                "useHierarchy": true
              }
            }
          },
          {
            "id": "dfabf24373fc4f22",
            "type": "leaf",
            "state": {
              "type": "outline",
              "state": {
                "file": "hello world.md"
              }
            }
          }
        ]
      }
    ],
    "direction": "horizontal",
    "width": 300,
    "collapsed": true
  },
  "left-ribbon": {
    "hiddenItems": {
      "switcher:Open quick switcher": false,
      "graph:Open graph view": false,
      "canvas:Create new canvas": false,
      "daily-notes:Open today's daily note": false,
      "templates:Insert template": false,
      "command-palette:Open command palette": false
    }
  },
  "active": "251cbe517c064641",
  "lastOpenFiles": [
    "hello world.md"
  ]
}